Tutorial ANOVA de uma via para plano amostral AC1
…
## # A tibble: 4 × 2
## # Groups:   victim_age [4]
##   victim_age      n
##        <dbl>  <int>
## 1         -3      1
## 2         -2     13
## 3         -1     60
## 4          0 211842

Crime_Data_from_2020_to_Present %>%  
  filter(victim_age == 0) %>% 
  group_by(crime_description) %>% 
  count()

## # A tibble: 133 × 2
## # Groups:   crime_description [133]
##    crime_description                                            n
##    <chr>                                                    <int>
##  1 ARSON                                                      996
##  2 ASSAULT WITH DEADLY WEAPON ON POLICE OFFICER               770
##  3 ASSAULT WITH DEADLY WEAPON, AGGRAVATED ASSAULT            1827
##  4 ATTEMPTED ROBBERY                                          566
##  5 BATTERY - SIMPLE ASSAULT                                   857
##  6 BATTERY ON A FIREFIGHTER                                    75
##  7 BATTERY POLICE (SIMPLE)                                   1685
##  8 BATTERY WITH SEXUAL CONTACT                                 36
##  9 BEASTIALITY, CRIME AGAINST NATURE SEXUAL ASSLT WITH ANIM     5
## 10 BIGAMY                                                       3
## # ℹ 123 more rows
…
Crime_Data_from_2020_to_Present %>%  
  group_by(victim_descent) %>% 
  count() %>% 
  arrange(n)

## # A tibble: 21 × 2
## # Groups:   victim_descent [21]
##    victim_descent     n
##    <chr>          <int>
##  1 -                  2
##  2 S                 46
##  3 L                 56
##  4 G                 63
##  5 D                 66
##  6 U                170
##  7 P                229
##  8 Z                426
##  9 I                805
## 10 V                893
## # ℹ 11 more rows
…
contagem <- amostra %>% 
  group_by(crime_description) %>% 
  count() 

contagem %>% 
  arrange(n)

## # A tibble: 135 × 2
## # Groups:   crime_description [135]
##    crime_description                                      n
##    <chr>                                              <int>
##  1 DISHONEST EMPLOYEE ATTEMPTED THEFT                     1
##  2 LYNCHING                                               1
##  3 LYNCHING - ATTEMPTED                                   1
##  4 CHILD ABANDONMENT                                      2
##  5 DRUGS, TO A MINOR                                      2
##  6 FIREARMS EMERGENCY PROTECTIVE ORDER (FIREARMS EPO)     2
##  7 FIREARMS RESTRAINING ORDER (FIREARMS RO)               2
##  8 GRAND THEFT / AUTO REPAIR                              2
##  9 PETTY THEFT - AUTO REPAIR                              2
## 10 THEFT, COIN MACHINE - ATTEMPT                          2
## # ℹ 125 more rows
…
E em uma distribuição por bairros conforme a seguir:

amostra_tipos %>% 
  group_by(area_name) %>% 
  count()

## # A tibble: 21 × 2
## # Groups:   area_name [21]
##    area_name       n
##    <chr>       <int>
##  1 77th Street 33526
##  2 Central     35692
##  3 Devonshire  19547
##  4 Foothill    17233
##  5 Harbor      19771
##  6 Hollenbeck  17531
##  7 Hollywood   27700
##  8 Mission     20258
##  9 N Hollywood 24845
## 10 Newton      25008
## # ℹ 11 more rows
…
